/home/athomas/eclipse-rest-folder-resolve/restwsnonjpa/target/classes/META-INF/maven/com.example.restwsnonjpa/restwsnonjpa/src/main/java/com/athomas/restwsnonjpa/service/UsersService.java
/home/athomas/eclipse-rest-folder-resolve/restwsnonjpa/target/classes/META-INF/maven/com.example.restwsnonjpa/restwsnonjpa/src/main/java/com/athomas/restwsnonjpa/model/Patient.java
/home/athomas/eclipse-rest-folder-resolve/restwsnonjpa/target/classes/META-INF/maven/com.example.restwsnonjpa/restwsnonjpa/src/main/java/com/athomas/restwsnonjpa/entities/User.java
/home/athomas/eclipse-rest-folder-resolve/restwsnonjpa/target/classes/META-INF/maven/com.example.restwsnonjpa/restwsnonjpa/src/main/java/com/athomas/restwsnonjpa/DAO/CompanyDAO.java
/home/athomas/eclipse-rest-folder-resolve/restwsnonjpa/target/classes/META-INF/maven/com.example.restwsnonjpa/restwsnonjpa/src/main/java/com/athomas/restwsnonjpa/DAO/UserDAO.java
/home/athomas/eclipse-rest-folder-resolve/restwsnonjpa/target/classes/META-INF/maven/com.example.restwsnonjpa/restwsnonjpa/src/main/java/com/athomas/restwsnonjpa/DAO/TeamDAO.java
/home/athomas/eclipse-rest-folder-resolve/restwsnonjpa/target/classes/META-INF/maven/com.example.restwsnonjpa/restwsnonjpa/src/main/java/com/athomas/restwsnonjpa/DAO/TeamDAOImpl.java
/home/athomas/eclipse-rest-folder-resolve/restwsnonjpa/target/classes/META-INF/maven/com.example.restwsnonjpa/restwsnonjpa/src/main/java/com/athomas/restwsnonjpa/model/User.java
/home/athomas/eclipse-rest-folder-resolve/restwsnonjpa/target/classes/META-INF/maven/com.example.restwsnonjpa/restwsnonjpa/src/main/java/com/athomas/restwsnonjpa/service/PatientsServiceImpl.java
/home/athomas/eclipse-rest-folder-resolve/restwsnonjpa/target/classes/META-INF/maven/com.example.restwsnonjpa/restwsnonjpa/src/main/java/com/athomas/restwsnonjpa/DAO/UserDAOImpl.java
/home/athomas/eclipse-rest-folder-resolve/restwsnonjpa/target/classes/META-INF/maven/com.example.restwsnonjpa/restwsnonjpa/src/main/java/com/athomas/restwsnonjpa/entities/TeamMembership.java
/home/athomas/eclipse-rest-folder-resolve/restwsnonjpa/target/classes/META-INF/maven/com.example.restwsnonjpa/restwsnonjpa/src/main/java/com/athomas/restwsnonjpa/service/CompanyService.java
/home/athomas/eclipse-rest-folder-resolve/restwsnonjpa/target/classes/META-INF/maven/com.example.restwsnonjpa/restwsnonjpa/src/main/java/com/athomas/restwsnonjpa/service/TeamService.java
/home/athomas/eclipse-rest-folder-resolve/restwsnonjpa/target/classes/META-INF/maven/com.example.restwsnonjpa/restwsnonjpa/src/main/java/com/athomas/restwsnonjpa/service/CompanyServiceImpl.java
/home/athomas/eclipse-rest-folder-resolve/restwsnonjpa/target/classes/META-INF/maven/com.example.restwsnonjpa/restwsnonjpa/src/main/java/com/athomas/restwsnonjpa/service/TeamServiceImpl.java
/home/athomas/eclipse-rest-folder-resolve/restwsnonjpa/target/classes/META-INF/maven/com.example.restwsnonjpa/restwsnonjpa/src/main/java/com/athomas/restwsnonjpa/entities/Company.java
/home/athomas/eclipse-rest-folder-resolve/restwsnonjpa/target/classes/META-INF/maven/com.example.restwsnonjpa/restwsnonjpa/src/main/java/com/athomas/restwsnonjpa/service/UserServiceImpl.java
/home/athomas/eclipse-rest-folder-resolve/restwsnonjpa/target/classes/META-INF/maven/com.example.restwsnonjpa/restwsnonjpa/src/main/java/com/athomas/restwsnonjpa/DAO/CompanyDAOImpl.java
/home/athomas/eclipse-rest-folder-resolve/restwsnonjpa/target/classes/META-INF/maven/com.example.restwsnonjpa/restwsnonjpa/src/main/java/com/athomas/restwsnonjpa/entities/Team.java
/home/athomas/eclipse-rest-folder-resolve/restwsnonjpa/target/classes/META-INF/maven/com.example.restwsnonjpa/restwsnonjpa/src/main/java/com/athomas/restwsnonjpa/service/PatientsService.java
/home/athomas/eclipse-rest-folder-resolve/restwsnonjpa/target/classes/META-INF/maven/com.example.restwsnonjpa/restwsnonjpa/src/main/java/com/athomas/restwsnonjpa/RestwsnonjpaApplication.java
